{
  "project_info": {
    "project_number": "922704958618",
    "firebase_url": "https://lunchapp-147104.firebaseio.com",
    "project_id": "lunchapp-147104",
    "storage_bucket": "lunchapp-147104.appspot.com"
  },
  "client": [
    {
      "client_info": {
        "mobilesdk_app_id": "1:922704958618:android:dbad5c07cf2d44ba",
        "android_client_info": {
          "package_name": "com.ionicframework.lunchshare"
        }
      },
      "oauth_client": [
        {
          "client_id": "922704958618-jh80i0g9n6rfmdcnhtibrb8o9rjn11ne.apps.googleusercontent.com",
          "client_type": 3
        }
      ],
      "api_key": [
        {
          "current_key": "AIzaSyCAZZDLCqOPhr_NmfALoEE7OZhYCsFLdC0"
        }
      ],
      "services": {
        "analytics_service": {
          "status": 1
        },
        "appinvite_service": {
          "status": 1,
          "other_platform_oauth_client": []
        },
        "ads_service": {
          "status": 2
        }
      }
    }
  ],
  "configuration_version": "1"
}